Project 2
…
Cycle1[Cycle1 < 0] <-NA

## Warning in Ops.factor(left, right): '<' not meaningful for factors

## Warning in Ops.factor(left, right): '<' not meaningful for factors

Cycle1[Cycle1==""] <-NA
Cycle1 <- na.omit(Cycle1)

Cycle1=Cycle1%>%group_by(state)%>%summarize(Donation.Mean=mean(X2016_dollars))
Cycle1$state[is.na(Cycle1$state)] <- ""
MeanDonations08 <- Cycle1 %>% filter(!state %in% c("ZZ", "AA", "","QC", "PR","AE","AP","AS","GU","VI", "DC"))
MeanDonations08

## # A tibble: 50 x 2
##     state Donation.Mean
##    <fctr>         <dbl>
##  1     AK      503.4698
##  2     AL      656.1296
##  3     AR      618.6256
##  4     AZ      557.5474
##  5     CA      612.3972
##  6     CO      669.8939
##  7     CT      611.4389
##  8     DE      509.8458
##  9     FL      688.2721
## 10     GA      599.2104
## # ... with 40 more rows
…
Cycle2[Cycle2 < 0] <-NA

## Warning in Ops.factor(left, right): '<' not meaningful for factors

## Warning in Ops.factor(left, right): '<' not meaningful for factors

Cycle2[Cycle2==""] <-NA
Cycle2 <- na.omit(Cycle2)

Cycle2=Cycle2%>%group_by(state)%>%summarize(Donation.Mean=mean(X2016_dollars))
Cycle2$state[is.na(Cycle2$state)] <- ""
MeanDonations08 <- Cycle2 %>% filter(!state %in% c("ZZ", "AA", "","QC", "PR","AE","AP","AS","GU","VI", "DC"))
MeanDonations08

## # A tibble: 50 x 2
##     state Donation.Mean
##    <fctr>         <dbl>
##  1     AK      525.0530
##  2     AL      515.9086
##  3     AR      552.2669
##  4     AZ      464.8698
##  5     CA      550.4782
##  6     CO      593.7697
##  7     CT      551.4221
##  8     DE      482.9379
##  9     FL      591.9872
## 10     GA      428.1601
## # ... with 40 more rows
…
Cycle3[Cycle3 < 0] <-NA

## Warning in Ops.factor(left, right): '<' not meaningful for factors

## Warning in Ops.factor(left, right): '<' not meaningful for factors

Cycle3[Cycle3==""] <-NA
Cycle3 <- na.omit(Cycle3)

Cycle3=Cycle3%>%group_by(state)%>%summarize(Donation.Mean=mean(X2016_dollars))
Cycle3$state[is.na(Cycle3$state)] <- ""
MeanDonations08 <- Cycle3 %>% filter(!state %in% c("ZZ", "AA", "","QC", "PR","AE","AP","AS","GU","VI", "DC"))
MeanDonations08

## # A tibble: 51 x 2
##     state Donation.Mean
##    <fctr>         <dbl>
##  1      1     133.84800
##  2     AK      95.65839
##  3     AL     130.96427
##  4     AR     128.34905
##  5     AZ      96.34240
##  6     CA     130.91764
##  7     CO     117.46363
##  8     CT     102.24012
##  9     DE      94.38494
## 10     FL     155.95311
## # ... with 41 more rows
…
